What the Package Does (Title Case) • analysis.pack
…
ads
#> # A tibble: 8,100 × 5
#>    subj        grp   week    pasi  time
#>    <chr>       <fct> <chr>  <dbl> <dbl>
#>  1 SUBJECT 001 ARM B WEEK00  27       0
#>  2 SUBJECT 001 ARM B WEEK01  22.5     1
#>  3 SUBJECT 001 ARM B WEEK04  18.2     4
#>  4 SUBJECT 001 ARM B WEEK08   8.8     8
#>  5 SUBJECT 001 ARM B WEEK16   4.2    16
#>  6 SUBJECT 001 ARM B WEEK24   1      24
#>  7 SUBJECT 001 ARM B WEEK32   0      32
#>  8 SUBJECT 001 ARM B WEEK40   0      40
#>  9 SUBJECT 001 ARM B WEEK52   0      52
#> 10 SUBJECT 002 ARM B WEEK00  23.2     0
#> # … with 8,090 more rows
…
ads
#> # A tibble: 8,100 × 11
#>    subj   grp   week   pasi  time rsp   nocbfl pasic crsp_onset crsp_end subset 
#>    <fct>  <fct> <chr> <dbl> <dbl> <fct> <lgl>  <fct>      <dbl>    <dbl> <chr>  
#>  1 SUBJE… ARM B WEEK…  27       0 PASI… FALSE  PASI…         24      Inf "Conti…
#>  2 SUBJE… ARM B WEEK…  22.5     1 PASI… FALSE  PASI…         24      Inf "Conti…
#>  3 SUBJE… ARM B WEEK…  18.2     4 PASI… FALSE  PASI…         24      Inf "Conti…
#>  4 SUBJE… ARM B WEEK…   8.8     8 PASI… FALSE  PASI…         24      Inf "Conti…
#>  5 SUBJE… ARM B WEEK…   4.2    16 PASI… FALSE  PASI…         24      Inf "Conti…
#>  6 SUBJE… ARM B WEEK…   1      24 PASI… FALSE  PASI…         24      Inf "Conti…
#>  7 SUBJE… ARM B WEEK…   0      32 PASI… FALSE  PASI…         24      Inf "Conti…
#>  8 SUBJE… ARM B WEEK…   0      40 PASI… FALSE  PASI…         24      Inf "Conti…
#>  9 SUBJE… ARM B WEEK…   0      52 PASI… FALSE  PASI…         24      Inf "Conti…
#> 10 SUBJE… ARM B WEEK…  23.2     0 PASI… FALSE  PASI…         16      Inf "Conti…
#> # … with 8,090 more rows
…
data <- ads %>%
  group_by(subj) %>%
  mutate(wk_last = max(time[rsp != "Missing"])) %>%
  ungroup() %>%
  distinct(subj, crsp_onset, wk_last, crsp_end) %>%
  mutate(
    km_rsp_1 = crsp_onset < Inf,
    time_1 = ifelse(crsp_onset < wk_last, crsp_onset, wk_last),
    km_rsp_2 = crsp_end < Inf,
    time_2 = ifelse(crsp_end < wk_last, crsp_end, wk_last) - crsp_onset
  )

data
#> # A tibble: 900 × 8
#>    subj        crsp_onset crsp_end wk_last km_rsp_1 time_1 km_rsp_2 time_2
#>    <fct>            <dbl>    <dbl>   <dbl> <lgl>     <dbl> <lgl>     <dbl>
#>  1 SUBJECT 001         24      Inf      52 TRUE         24 FALSE        28
#>  2 SUBJECT 002         16      Inf      52 TRUE         16 FALSE        36
#>  3 SUBJECT 003        Inf      Inf      16 FALSE        16 FALSE      -Inf
#>  4 SUBJECT 004          4      Inf      52 TRUE          4 FALSE        48
#>  5 SUBJECT 005         32      Inf      52 TRUE         32 FALSE        20
#>  6 SUBJECT 006         24      Inf      52 TRUE         24 FALSE        28
#>  7 SUBJECT 007          8      Inf      52 TRUE          8 FALSE        44
#>  8 SUBJECT 008          8      Inf      52 TRUE          8 FALSE        44
#>  9 SUBJECT 009          4      Inf      52 TRUE          4 FALSE        48
#> 10 SUBJECT 010         16      Inf      52 TRUE         16 FALSE        36
#> # … with 890 more rows
…
